LAB3/ARBITRATION/simulation/qsim/ARBITRATION.msim.vcd
$comment
	File created using the following command:
		vcd file ARBITRATION.msim.vcd -direction
$end
$date
	Sat Mar 18 16:08:58 2023
$end
$version
	ModelSim Version 10.5b
$end
$timescale
	1ps
$end

$scope module ARBITRATION_vlg_vec_tst $end
$var reg 1 ! A $end
$var reg 1 " B $end
$var reg 1 # C $end
$var reg 1 $ clk $end
$var reg 1 % reset $end
$var wire 1 & A_out $end
$var wire 1 ' B_out $end
$var wire 1 ( C_out $end

$scope module i1 $end
$var wire 1 ) gnd $end
$var wire 1 * vcc $end
$var wire 1 + unknown $end
$var tri1 1 , devclrn $end
$var tri1 1 - devpor $end
$var tri1 1 . devoe $end
$var wire 1 / A_out~output_o $end
$var wire 1 0 B_out~output_o $end
$var wire 1 1 C_out~output_o $end
$var wire 1 2 A~input_o $end
$var wire 1 3 clk~input_o $end
$var wire 1 4 B~input_o $end
$var wire 1 5 C~input_o $end
$var wire 1 6 Selector2~0_combout $end
$var wire 1 7 reset~input_o $end
$var wire 1 8 Equal0~0_combout $end
$var wire 1 9 Selector1~0_combout $end
$var wire 1 : Selector3~0_combout $end
$var wire 1 ; Selector4~0_combout $end
$var wire 1 < Selector5~0_combout $end
$var wire 1 = current_state [31] $end
$var wire 1 > current_state [30] $end
$var wire 1 ? current_state [29] $end
$var wire 1 @ current_state [28] $end
$var wire 1 A current_state [27] $end
$var wire 1 B current_state [26] $end
$var wire 1 C current_state [25] $end
$var wire 1 D current_state [24] $end
$var wire 1 E current_state [23] $end
$var wire 1 F current_state [22] $end
$var wire 1 G current_state [21] $end
$var wire 1 H current_state [20] $end
$var wire 1 I current_state [19] $end
$var wire 1 J current_state [18] $end
$var wire 1 K current_state [17] $end
$var wire 1 L current_state [16] $end
$var wire 1 M current_state [15] $end
$var wire 1 N current_state [14] $end
$var wire 1 O current_state [13] $end
$var wire 1 P current_state [12] $end
$var wire 1 Q current_state [11] $end
$var wire 1 R current_state [10] $end
$var wire 1 S current_state [9] $end
$var wire 1 T current_state [8] $end
$var wire 1 U current_state [7] $end
$var wire 1 V current_state [6] $end
$var wire 1 W current_state [5] $end
$var wire 1 X current_state [4] $end
$var wire 1 Y current_state [3] $end
$var wire 1 Z current_state [2] $end
$var wire 1 [ current_state [1] $end
$var wire 1 \ current_state [0] $end
$upscope $end
$upscope $end
$enddefinitions $end
#0
$dumpvars
0!
0"
0#
1$
1%
0&
0'
0(
0)
1*
x+
1,
1-
1.
0/
00
01
02
13
04
05
16
17
08
09
0:
0;
0<
0\
0[
0Z
zY
zX
zW
zV
zU
zT
zS
zR
zQ
zP
zO
zN
zM
zL
zK
zJ
zI
zH
zG
zF
zE
zD
zC
zB
zA
z@
z?
z>
z=
$end
#5000
0$
03
#10000
1$
13
#15000
0$
03
#20000
0%
1$
07
13
1\
#25000
0$
03
#30000
1!
1"
1#
1$
12
14
15
13
19
1:
1/
1&
#35000
0$
03
#40000
1$
13
1[
1;
0:
09
18
06
0/
10
1'
0&
#45000
0$
03
#50000
1$
13
0[
1Z
0\
1<
0;
19
08
00
11
1(
0'
#55000
0$
03
#60000
0!
0"
0#
1$
02
04
05
13
0<
01
0(
1[
0Z
16
#65000
0$
03
#70000
1"
1$
14
13
1\
1;
09
18
06
10
1'
#75000
0$
03
#80000
1!
1#
0"
1$
12
15
04
13
0;
00
0'
0[
1Z
0\
1<
19
08
11
1(
#85000
0$
03
#90000
1$
13
1[
0Z
0<
1:
16
1/
01
0(
1&
#95000
0$
03
#100000
0!
0#
1$
02
05
13
0:
0/
0&
1\
09
18
06
#105000
0$
03
#110000
1$
13
0[
1Z
0\
19
08
#115000
0$
03
#120000
1$
13
1[
0Z
16
#125000
0$
03
#130000
1$
13
1\
09
18
06
#135000
0$
03
#140000
1$
13
0[
1Z
0\
19
08
#145000
0$
03
#150000
1$
13
1[
0Z
16
#155000
0$
03
#160000
1$
13
1\
09
18
06
#165000
0$
03
#170000
1$
13
0[
1Z
0\
19
08
#175000
0$
03
#180000
1$
13
1[
0Z
16
#185000
0$
03
#190000
1$
13
1\
09
18
06
#195000
0$
03
#200000
1$
13
0[
1Z
0\
19
08
#205000
0$
03
#210000
1$
13
1[
0Z
16
#215000
0$
03
#220000
1$
13
1\
09
18
06
#225000
0$
03
#230000
1$
13
0[
1Z
0\
19
08
#235000
0$
03
#240000
1$
13
1[
0Z
16
#245000
0$
03
#250000
1$
13
1\
09
18
06
#255000
0$
03
#260000
1$
13
0[
1Z
0\
19
08
#265000
0$
03
#270000
1$
13
1[
0Z
16
#275000
0$
03
#280000
1$
13
1\
09
18
06
#285000
0$
03
#290000
1$
13
0[
1Z
0\
19
08
#295000
0$
03
#300000
1$
13
1[
0Z
16
#305000
0$
03
#310000
1$
13
1\
09
18
06
#315000
0$
03
#320000
1$
13
0[
1Z
0\
19
08
#325000
0$
03
#330000
1$
13
1[
0Z
16
#335000
0$
03
#340000
1$
13
1\
09
18
06
#345000
0$
03
#350000
1$
13
0[
1Z
0\
19
08
#355000
0$
03
#360000
1$
13
1[
0Z
16
#365000
0$
03
#370000
1$
13
1\
09
18
06
#375000
0$
03
#380000
1$
13
0[
1Z
0\
19
08
#385000
0$
03
#390000
1$
13
1[
0Z
16
#395000
0$
03
#400000
1$
13
1\
09
18
06
#405000
0$
03
#410000
1$
13
0[
1Z
0\
19
08
#415000
0$
03
#420000
1$
13
1[
0Z
16
#425000
0$
03
#430000
1$
13
1\
09
18
06
#435000
0$
03
#440000
1$
13
0[
1Z
0\
19
08
#445000
0$
03
#450000
1$
13
1[
0Z
16
#455000
0$
03
#460000
1$
13
1\
09
18
06
#465000
0$
03
#470000
1$
13
0[
1Z
0\
19
08
#475000
0$
03
#480000
1$
13
1[
0Z
16
#485000
0$
03
#490000
1$
13
1\
09
18
06
#495000
0$
03
#500000
1$
13
0[
1Z
0\
19
08
#505000
0$
03
#510000
1$
13
1[
0Z
16
#515000
0$
03
#520000
1$
13
1\
09
18
06
#525000
0$
03
#530000
1$
13
0[
1Z
0\
19
08
#535000
0$
03
#540000
1$
13
1[
0Z
16
#545000
0$
03
#550000
1$
13
1\
09
18
06
#555000
0$
03
#560000
1$
13
0[
1Z
0\
19
08
#565000
0$
03
#570000
1$
13
1[
0Z
16
#575000
0$
03
#580000
1$
13
1\
09
18
06
#585000
0$
03
#590000
1$
13
0[
1Z
0\
19
08
#595000
0$
03
#600000
1$
13
1[
0Z
16
#605000
0$
03
#610000
1$
13
1\
09
18
06
#615000
0$
03
#620000
1$
13
0[
1Z
0\
19
08
#625000
0$
03
#630000
1$
13
1[
0Z
16
#635000
0$
03
#640000
1$
13
1\
09
18
06
#645000
0$
03
#650000
1$
13
0[
1Z
0\
19
08
#655000
0$
03
#660000
1$
13
1[
0Z
16
#665000
0$
03
#670000
1$
13
1\
09
18
06
#675000
0$
03
#680000
1$
13
0[
1Z
0\
19
08
#685000
0$
03
#690000
1$
13
1[
0Z
16
#695000
0$
03
#700000
1$
13
1\
09
18
06
#705000
0$
03
#710000
1$
13
0[
1Z
0\
19
08
#715000
0$
03
#720000
1$
13
1[
0Z
16
#725000
0$
03
#730000
1$
13
1\
09
18
06
#735000
0$
03
#740000
1$
13
0[
1Z
0\
19
08
#745000
0$
03
#750000
1$
13
1[
0Z
16
#755000
0$
03
#760000
1$
13
1\
09
18
06
#765000
0$
03
#770000
1$
13
0[
1Z
0\
19
08
#775000
0$
03
#780000
1$
13
1[
0Z
16
#785000
0$
03
#790000
1$
13
1\
09
18
06
#795000
0$
03
#800000
1$
13
0[
1Z
0\
19
08
#805000
0$
03
#810000
1$
13
1[
0Z
16
#815000
0$
03
#820000
1$
13
1\
09
18
06
#825000
0$
03
#830000
1$
13
0[
1Z
0\
19
08
#835000
0$
03
#840000
1$
13
1[
0Z
16
#845000
0$
03
#850000
1$
13
1\
09
18
06
#855000
0$
03
#860000
1$
13
0[
1Z
0\
19
08
#865000
0$
03
#870000
1$
13
1[
0Z
16
#875000
0$
03
#880000
1$
13
1\
09
18
06
#885000
0$
03
#890000
1$
13
0[
1Z
0\
19
08
#895000
0$
03
#900000
1$
13
1[
0Z
16
#905000
0$
03
#910000
1$
13
1\
09
18
06
#915000
0$
03
#920000
1$
13
0[
1Z
0\
19
08
#925000
0$
03
#930000
1$
13
1[
0Z
16
#935000
0$
03
#940000
1$
13
1\
09
18
06
#945000
0$
03
#950000
1$
13
0[
1Z
0\
19
08
#955000
0$
03
#960000
1$
13
1[
0Z
16
#965000
0$
03
#970000
1$
13
1\
09
18
06
#975000
0$
03
#980000
1$
13
0[
1Z
0\
19
08
#985000
0$
03
#990000
1$
13
1[
0Z
16
#995000
0$
03
