TEST/simulation/qsim/TEST.msim.vcd
$comment
	File created using the following command:
		vcd file TEST.msim.vcd -direction
$end
$date
	Sat Feb 25 22:18:32 2023
$end
$version
	ModelSim Version 10.5b
$end
$timescale
	1ps
$end

$scope module TEST_vlg_vec_tst $end
$var reg 1 ! clk $end
$var reg 1 " reset $end
$var wire 1 # clk_div $end
$var wire 1 $ result [3] $end
$var wire 1 % result [2] $end
$var wire 1 & result [1] $end
$var wire 1 ' result [0] $end

$scope module i1 $end
$var wire 1 ( gnd $end
$var wire 1 ) vcc $end
$var wire 1 * unknown $end
$var tri1 1 + devclrn $end
$var tri1 1 , devpor $end
$var tri1 1 - devoe $end
$var wire 1 . result[0]~output_o $end
$var wire 1 / result[1]~output_o $end
$var wire 1 0 result[2]~output_o $end
$var wire 1 1 result[3]~output_o $end
$var wire 1 2 clk_div~output_o $end
$var wire 1 3 clk~input_o $end
$var wire 1 4 f1|counter[0]~2_combout $end
$var wire 1 5 reset~input_o $end
$var wire 1 6 f1|counter~1_combout $end
$var wire 1 7 f1|counter[2]~0_combout $end
$var wire 1 8 f1|clk_out~0_combout $end
$var wire 1 9 f1|clk_out~q $end
$var wire 1 : current_state.0100~q $end
$var wire 1 ; current_state.0101~q $end
$var wire 1 < current_state.0110~q $end
$var wire 1 = current_state.0111~q $end
$var wire 1 > current_state.0000~0_combout $end
$var wire 1 ? current_state.0000~q $end
$var wire 1 @ current_state.0001~0_combout $end
$var wire 1 A current_state.0001~q $end
$var wire 1 B current_state.0010~q $end
$var wire 1 C current_state.0011~q $end
$var wire 1 D WideOr0~combout $end
$var wire 1 E f1|counter [2] $end
$var wire 1 F f1|counter [1] $end
$var wire 1 G f1|counter [0] $end
$upscope $end
$upscope $end
$enddefinitions $end
#0
$dumpvars
0!
1"
0#
0'
0&
0%
0$
0(
1)
x*
1+
1,
1-
0.
0/
00
01
02
03
14
15
06
07
08
09
0:
0;
0<
0=
1>
0?
1@
0A
0B
0C
0D
0G
0F
0E
$end
#5000
1!
13
#10000
0!
03
#15000
1!
13
#20000
0!
03
#25000
1!
13
#30000
0!
03
#35000
1!
13
#40000
0"
0!
05
03
#45000
1!
13
1G
18
04
#50000
0!
03
#55000
1!
13
0G
19
12
1#
14
1?
1A
0@
#60000
0!
03
#65000
1!
13
1G
08
04
#70000
0!
03
#75000
1!
13
0G
09
02
0#
14
#80000
0!
03
#85000
1!
13
1G
18
04
#90000
0!
03
#95000
1!
13
0G
19
12
1#
14
1B
0A
11
1$
#100000
0!
03
#105000
1!
13
1G
08
04
#110000
0!
03
#115000
1!
13
0G
09
02
0#
14
#120000
0!
03
#125000
1!
13
1G
18
04
#130000
0!
03
#135000
1!
13
0G
19
12
1#
14
1C
0B
01
0$
1D
1.
10
1%
1'
#140000
0!
03
#145000
1!
13
1G
08
04
#150000
0!
03
#155000
1!
13
0G
09
02
0#
14
#160000
0!
03
#165000
1!
13
1G
18
04
#170000
0!
03
#175000
1!
13
0G
19
12
1#
14
0C
1:
1/
1&
#180000
0!
03
#185000
1!
13
1G
08
04
#190000
0!
03
#195000
1!
13
0G
09
02
0#
14
#200000
0!
03
#205000
1!
13
1G
18
04
#210000
0!
03
#215000
1!
13
0G
19
12
1#
14
1;
0:
0/
0&
0D
0.
00
0%
0'
#220000
0!
03
#225000
1!
13
1G
08
04
#230000
0!
03
#235000
1!
13
0G
09
02
0#
14
#240000
0!
03
#245000
1!
13
1G
18
04
#250000
0!
03
#255000
1!
13
0G
19
12
1#
14
1<
0;
#260000
0!
03
#265000
1!
13
1G
08
04
#270000
0!
03
#275000
1!
13
0G
09
02
0#
14
#280000
0!
03
#285000
1!
13
1G
18
04
#290000
0!
03
#295000
1!
13
0G
19
12
1#
14
1=
0<
1D
0>
1.
10
1%
1'
#300000
0!
03
#305000
1!
13
1G
08
04
#310000
0!
03
#315000
1!
13
0G
09
02
0#
14
#320000
0!
03
#325000
1!
13
1G
18
04
#330000
0!
03
#335000
1!
13
0G
19
12
1#
14
0?
0=
0D
1>
1@
0.
00
0%
0'
#340000
0!
03
#345000
1!
13
1G
08
04
#350000
0!
03
#355000
1!
13
0G
09
02
0#
14
#360000
0!
03
#365000
1!
13
1G
18
04
#370000
0!
03
#375000
1!
13
0G
19
12
1#
14
1?
1A
0@
#380000
0!
03
#385000
1!
13
1G
08
04
#390000
0!
03
#395000
1!
13
0G
09
02
0#
14
#400000
0!
03
#405000
1!
13
1G
18
04
#410000
0!
03
#415000
1!
13
0G
19
12
1#
14
1B
0A
11
1$
#420000
0!
03
#425000
1!
13
1G
08
04
#430000
0!
03
#435000
1!
13
0G
09
02
0#
14
#440000
0!
03
#445000
1!
13
1G
18
04
#450000
0!
03
#455000
1!
13
0G
19
12
1#
14
1C
0B
01
0$
1D
1.
10
1%
1'
#460000
0!
03
#465000
1!
13
1G
08
04
#470000
0!
03
#475000
1!
13
0G
09
02
0#
14
#480000
0!
03
#485000
1!
13
1G
18
04
#490000
0!
03
#495000
1!
13
0G
19
12
1#
14
0C
1:
1/
1&
#500000
0!
03
#505000
1!
13
1G
08
04
#510000
0!
03
#515000
1!
13
0G
09
02
0#
14
#520000
0!
03
#525000
1!
13
1G
18
04
#530000
0!
03
#535000
1!
13
0G
19
12
1#
14
1;
0:
0/
0&
0D
0.
00
0%
0'
#540000
0!
03
#545000
1!
13
1G
08
04
#550000
0!
03
#555000
1!
13
0G
09
02
0#
14
#560000
0!
03
#565000
1!
13
1G
18
04
#570000
0!
03
#575000
1!
13
0G
19
12
1#
14
1<
0;
#580000
0!
03
#585000
1!
13
1G
08
04
#590000
0!
03
#595000
1!
13
0G
09
02
0#
14
#600000
0!
03
#605000
1!
13
1G
18
04
#610000
0!
03
#615000
1!
13
0G
19
12
1#
14
1=
0<
1D
0>
1.
10
1%
1'
#620000
0!
03
#625000
1!
13
1G
08
04
#630000
0!
03
#635000
1!
13
0G
09
02
0#
14
#640000
0!
03
#645000
1!
13
1G
18
04
#650000
0!
03
#655000
1!
13
0G
19
12
1#
14
0?
0=
0D
1>
1@
0.
00
0%
0'
#660000
0!
03
#665000
1!
13
1G
08
04
#670000
0!
03
#675000
1!
13
0G
09
02
0#
14
#680000
0!
03
#685000
1!
13
1G
18
04
#690000
0!
03
#695000
1!
13
0G
19
12
1#
14
1?
1A
0@
#700000
0!
03
#705000
1!
13
1G
08
04
#710000
0!
03
#715000
1!
13
0G
09
02
0#
14
#720000
0!
03
#725000
1!
13
1G
18
04
#730000
0!
03
#735000
1!
13
0G
19
12
1#
14
1B
0A
11
1$
#740000
0!
03
#745000
1!
13
1G
08
04
#750000
0!
03
#755000
1!
13
0G
09
02
0#
14
#760000
0!
03
#765000
1!
13
1G
18
04
#770000
0!
03
#775000
1!
13
0G
19
12
1#
14
1C
0B
01
0$
1D
1.
10
1%
1'
#780000
0!
03
#785000
1!
13
1G
08
04
#790000
0!
03
#795000
1!
13
0G
09
02
0#
14
#800000
0!
03
#805000
1!
13
1G
18
04
#810000
0!
03
#815000
1!
13
0G
19
12
1#
14
0C
1:
1/
1&
#820000
0!
03
#825000
1!
13
1G
08
04
#830000
0!
03
#835000
1!
13
0G
09
02
0#
14
#840000
0!
03
#845000
1!
13
1G
18
04
#850000
0!
03
#855000
1!
13
0G
19
12
1#
14
1;
0:
0/
0&
0D
0.
00
0%
0'
#860000
0!
03
#865000
1!
13
1G
08
04
#870000
0!
03
#875000
1!
13
0G
09
02
0#
14
#880000
0!
03
#885000
1!
13
1G
18
04
#890000
0!
03
#895000
1!
13
0G
19
12
1#
14
1<
0;
#900000
0!
03
#905000
1!
13
1G
08
04
#910000
0!
03
#915000
1!
13
0G
09
02
0#
14
#920000
0!
03
#925000
1!
13
1G
18
04
#930000
0!
03
#935000
1!
13
0G
19
12
1#
14
1=
0<
1D
0>
1.
10
1%
1'
#940000
0!
03
#945000
1!
13
1G
08
04
#950000
0!
03
#955000
1!
13
0G
09
02
0#
14
#960000
0!
03
#965000
1!
13
1G
18
04
#970000
0!
03
#975000
1!
13
0G
19
12
1#
14
0?
0=
0D
1>
1@
0.
00
0%
0'
#980000
0!
03
#985000
1!
13
1G
08
04
#990000
0!
03
#995000
1!
13
0G
09
02
0#
14
